…
  ## and removing the `root tag` for non-descriptive variables

  car_documentation <- car_documentation %>%
    delete_tags(tags = 'root tag',
                variable %in% c('ID', 'Type'))

```

```
> car_documentation %>% select(variable, tags) %>% mutate(tags = map_chr(tags, paste, collapse = ', '))

# A tibble: 31 × 2
   variable     tags                                
   <chr>        <chr>                               
 1 ID           ""                                  
 2 Manufacturer "root tag"                          
 3 Model        "root tag"                          
 4 Type         ""                                  
 5 Min.Price    "root tag, price, affordability"    
 6 Price        "root tag, price, affordability"    
 7 Max.Price    "root tag, price, affordability"    
 8 MPG.city     "root tag, economics, affordability"
 9 MPG.highway  "root tag, economics, affordability"
10 AirBags      "root tag"                          
# … with 21 more rows
# ℹ Use `print(n = ...)` to see more rows
…
```
We can also append the documentation with one or multiple columns with variable classification labels based on the tags by calling `expand_tags()`for the documentation object. 
The tags of interest are provided as a character vector via the `tags` argument. 
If these tags are exclusive and `one_column = TRUE`, a single column named `tag_class` is added to the documentation data frame as in the example below for non-overlapping tags `'drive'`, `'price'`, and `'dimensions'`: 

```
>   car_documentation %>% 
+     expand_tags(tags = c('price', 'drive', 'dimensions'), 
+                 one_column = TRUE) %>% 
+     select(variable, tag_class)

# A tibble: 31 × 2
   variable     tag_class
   <chr>        <fct>    
 1 ID           other    
 2 Manufacturer other    
 3 Model        other    
 4 Type         other    
 5 Min.Price    price    
 6 Price        price    
 7 Max.Price    price    
 8 MPG.city     other    
 9 MPG.highway  other    
10 AirBags      other    
# … with 21 more rows
# ℹ Use `print(n = ...)` to see more rows
…
